4-
  a){
	real célsius, fahrenheit;
    imprima("Entre com o valor de graus célsius:");
    leia(celsius);

	fahrenheit = (9 * c + 160)/5;
	imprima("O valor e graus fahrenheit");
	imprima(fahrenheit);
    }

---------------------------------------------------------------------------------------------------------------------  
  b){
	real volume, raio, altura;
	imprima("Qual o raio do cilindro");
	leia(raio);
	imprima("Qual a altura do cilindro");
    leia(altura);

    volume = 3,1415 * (raio * raio) * altura;
	imprima("O volume do cilindro e");
	imprima(volume);
    }

---------------------------------------------------------------------------------------------------------------------
  
  c){
	real comprimento, largura, altura, volume;
	("Digite o comprimento:");
	leia(comprimento);
	("Digite a largura:");
	leia(largura);
	("Digite a altura:");
	leia(altura);
	
	volume = largura * altura * volume;

	imprima(volume);
	
    }

=====================================================================================================================

5-
   a)(10011) base dois para decimal:
	10011 = 1*2⁴+1*2¹+1*2⁰ = 19 na base dez.
---------------------------------------------------------------------------------------------------------------------
   b)257 para binário:
	257 = 2⁸ + 2¹ = 100000001 na base dois.
---------------------------------------------------------------------------------------------------------------------
   c)AB3 para binário e para decimal:
     AB3 = 101010110011 na base dois 
     AB3 = 1 * 2⁰ + 1 * 2¹ + 1 * 2⁴ + 1 * 2⁵ + 1 * 2⁷ + 1 * 2¹⁰ + 1 * 2¹² = 2739 na base dez.

=====================================================================================================================

6- {
	
		inteiro num1, num2, num3, num4, num5, soma; 
		imprima("Digite 5 numeros inteiros:");
		leia(num1, num2, num3, num4, num5);

		soma = num1 + num2 + num3 + num4 + num5;
		imprima("O valor da soma e:");
		imprima(soma);

	}

=====================================================================================================================

7-{
	
   		real num1, num2, num3, num4, num5, num6, media; 
   		imprima("Digite 6 numeros:");
   		leia(num1, num2, num3, num4, num5, num6,);

   		media = (num1 + num2 + num3 + num4 + num5 + num6)/6.0;
   		imprima("A media dos numeros digitados e:");
   		imprima(media);
  
  }

=====================================================================================================================

8-{
		real soma;

		soma = 1.0 + (1.0/2.0) + (1.0/3.0) + (1.0/4.0) + (1.0/5.0);
		imprima("A soma dos valores e:");
		imprima(soma);
  }

=====================================================================================================================

9-{
	
	 	real salario_atual, salario_final, aumento;
	 	imprima("Digite o salario atual e a porcentagem de aumento:")
	 	leia(salario_atual,aumento);

	 	salario_final = salario_atual + (salario_atual * (aumento/100));
	 	imprima("O salario final e:");
	 	imprima(salario_atual);
  }

====================================================================================================================

10-{
		real nota1,nota2,nota3,media_ponderada;
		imprima("Digite as 3 notas:");
		leia(nota1,nota2,nota3);

		media_ponderada = ((nota1 * 4) + (nota2 * 3) + (nota1 * 3))/10;
		imprima("A media ponderada das notas e:");
		imprima(media_ponderada);
	


   }